…
### 표준 편차

데이터에 흩어짐 정도(spread)는 표준 편차(standard deviation) 또는 R의 `sd()`로 계산한다.

```
# Spread
data %>%
	group_by(teamID) %>%
	summarise(sd_at_bat_league = sd(HR))
```

**결과 :**

```
## # A tibble: 149 x 2
##    teamID sd_at_bat_league
##    <fct>             <dbl>
##  1 ALT               0.323
##  2 ANA               8.14 
##  3 ARI               7.31 
##  4 ATL               7.68 
##  5 BAL               7.47 
##  6 BFN               1.97 
##  7 BFP               1.31 
##  8 BL1               1.25 
##  9 BL2               1.49 
## 10 BL3               1.86 
## # ... with 139 more rows	
```
…
아래의 코드는 시즌 동안 선수가 출전하는 최소 경기 수와 최대 경기 수를 반환한다.

```
# Min and max
data %>%
	group_by(playerID) %>%
	summarise(min_G = min(G),
    max_G = max(G))
```

**Output:**

```
## # A tibble: 19,182 x 3
##    playerID  min_G max_G
##    <fct>     <int> <int>
##  1 aardsda01     1    73
##  2 aaronha01    85   161
##  3 aaronto01     8   141
##  4 aasedo01      7    66
##  5 abadan01      1     9
##  6 abadfe01     18    69
##  7 abadijo01     1    11
##  8 abbated01     3   154
##  9 abbeybe01     1    27
## 10 abbeych01    31   133
## # ... with 19,172 more rows
```
…
예를 들어, 아래의 코드는 각 선수(`playerID`)가 출전한 년도 수(`number_year`)를 계산한다.

```
# count observations
data %>%
	group_by(playerID) %>%
	summarise(number_year = n()) %>%
	arrange(desc(number_year))
```

**결과 :**

```
## # A tibble: 19,182 x 2
##    playerID  number_year
##    <fct>           <int>
##  1 mcguide01          31
##  2 henderi01          29
##  3 newsobo01          29
##  4 johnto01           28
##  5 kaatji01           28
##  6 ansonca01          27
##  7 baineha01          27
##  8 carltst01          27
##  9 moyerja01          27
## 10 ryanno01           27
## # ... with 19,172 more rows
```
…
예를 들어, 각 선수(`playerID`)의 첫번째 데이터 항목( `yearID`)와 마지막 항목( `yearID`)를 찾을 수 있다.

```
# first and last
data %>%
	group_by(playerID) %>%
	summarise(first_appearance = first(yearID),
		last_appearance = last(yearID))
```

**결과 : **

```
## # A tibble: 19,182 x 3
##    playerID  first_appearance last_appearance
##    <fct>                <int>           <int>
##  1 aardsda01             2015            2004
##  2 aaronha01             1966            1976
##  3 aaronto01             1968            1965
##  4 aasedo01              1985            1989
##  5 abadan01              2003            2001
##  6 abadfe01              2016            2013
##  7 abadijo01             1875            1875
##  8 abbated01             1903            1910
##  9 abbeybe01             1895            1892
## 10 abbeych01             1893            1897
## # ... with 19,172 more rows
```
…
각 선수별(`playerID`)로 첫 출전 경기 연도(`min(yearID)`)와 마지막 출전 경기 연도(`max(yearID)`)를 출력하고자 한다면 다음과 같이 한다.

```{r}
# min and max
data %>%
	group_by(playerID) %>%
	summarise(first_appearance = min(yearID),
		last_appearance = max(yearID))
```

**결과 :** 

```{}
## # A tibble: 19,182 x 3
##    playerID  first_appearance last_appearance
##    <fct>                <int>           <int>
##  1 aardsda01             2004            2015
##  2 aaronha01             1954            1976
##  3 aaronto01             1962            1971
##  4 aasedo01              1977            1990
##  5 abadan01              2001            2006
##  6 abadfe01              2010            2017
##  7 abadijo01             1875            1875
##  8 abbated01             1897            1910
##  9 abbeybe01             1892            1896
## 10 abbeych01             1893            1897
## # ... with 19,172 more rows
```
…
예를 들어, 당신은 한 팀이 출전한 2번째 년도만 필터링할 수 있다.

```
# nth
data %>%
	group_by(teamID) %>%
	summarise(second_game = nth(yearID, 2)) %>%
	arrange(second_game)
```

**Output:**

```
## # A tibble: 149 x 2
##    teamID second_game
##    <fctr>       <int>
##  1    BS1        1871
##  2    CH1        1871
##  3    FW1        1871
##  4    NY2        1871
##  5    RC1        1871
##  6    BR1        1872
##  7    BR2        1872
##  8    CL1        1872
##  9    MID        1872
## 10    TRO        1872
## # ... with 139 more rows
```
…
**코드 설명 :**

- group_by(teamID) : **team**별 그룹
- summarise(number_player = **n_distinct**(playerID)) : 선수 수, `n_distinct()` 함수 사용에 유의.
- arrange(desc(number_player)) : 선수 수의 내림차순 정렬

**결과 :**

```
## # A tibble: 149 x 2
##    teamID number_player
##    <fct>          <int>
##  1 CHN             2051
##  2 PHI             2036
##  3 SLN             1971
##  4 CIN             1912
##  5 PIT             1877
##  6 CLE             1855
##  7 BOS             1783
##  8 CHA             1744
##  9 DET             1658
## 10 NYA             1658
## # ... with 139 more rows
```
…
**코드 설명 :**

- group_by(teamID, yearID) : **팀**별,  **연도**별 그룹
- summarise(number_player = **n_distinct**(playerID)) : 선수 수
- arrange(teamID, yearID) : 팀별, 연도별로 정렬

**결과 :**

```
## # A tibble: 2,865 x 3
## # Groups:   teamID [149]
##    teamID yearID number_player
##    <fct>   <int>         <int>
##  1 ALT      1884            18
##  2 ANA      1997            43
##  3 ANA      1998            45
##  4 ANA      1999            45
##  5 ANA      2000            45
##  6 ANA      2001            38
##  7 ANA      2002            40
##  8 ANA      2003            43
##  9 ANA      2004            38
## 10 ARI      1998            46
## # ... with 2,855 more rows
…
**코드 설명 :**

- group_by(teamID, yearID) : **팀**별,  **연도**별 그룹
- summarise(number_player = **n_distinct**(playerID)) : 선수 수
- arrange(teamID, yearID) : 팀별, 연도별로 정렬

**결과 :**

```
## # A tibble: 2,865 x 3
## # Groups:   teamID [149]
##    teamID yearID number_player
##    <fct>   <int>         <int>
##  1 ALT      1884            18
##  2 ANA      1997            43
##  3 ANA      1998            45
##  4 ANA      1999            45
##  5 ANA      2000            45
##  6 ANA      2001            38
##  7 ANA      2002            40
##  8 ANA      2003            43
##  9 ANA      2004            38
## 10 ARI      1998            46
## # ... with 2,855 more rows
…
**코드 설명 :**

- group_by(yearID, teamID) : 연도와 팀 별로 그룹
- summarise(mean_games = mean(G)) : 출전 경기 수의 평균
- arrange(desc(yearID, teamID)) : 연도별, 팀별 내림차순 정렬

**결과 :**

```
## # A tibble: 2,865 x 3
## # Groups:   yearID [147]
##    yearID teamID mean_games
##     <int> <fct>       <dbl>
##  1   2017 ARI          52.4
##  2   2017 ATL          48.4
##  3   2017 BAL          47.0
##  4   2017 BOS          47.6
##  5   2017 CHA          44.9
##  6   2017 CHN          51.5
##  7   2017 CIN          49.4
##  8   2017 CLE          57.7
##  9   2017 COL          57.9
## 10   2017 DET          47.7
## # ... with 2,855 more rows
```
…
**코드 설명 :**

- filter(yearID > 1980) : 분석할 년도(즉, 1980년 이후)만 데이터로 선택함.
- group_by(yearID) : 년도별 그룹
- summarise(mean_game_year = mean(G)) : 데이터 요약

**결과 :**

```
## # A tibble: 37 x 2
##    yearID mean_game_year
##     <int>          <dbl>
##  1   1981           40.0
##  2   1982           56.6
##  3   1983           56.1
##  4   1984           58.1
##  5   1985           57.2
##  6   1986           56.1
##  7   1987           54.7
##  8   1988           54.2
##  9   1989           53.3
## 10   1990           52.2
## # ... with 27 more rows
…
